{
  "elk" :{
  	"myelk": {
  		"image": "sebp/elk",
  		"ports": [
  			"5601:5601",
  			"9200:9200",
  			"5044:5044"
  		]
  	}
  },
  "gerrit": {
  	"mygerrit": {
  		"image": "openfrontier/gerrit",
  		"ports": [
  			"8082:8080",
  			"29418:29418"
  		]
  	}
  },
  "gitlab": {
  	"mygit": {
  		"image": "gitlab/gitlab-ce",
  		"restart": "always",
  		"hostname": "gitlab.rig.com",
  		"ports": [
  			"8080:80",
  			"443:443",
  			"21:22"
  		],
  		"volumes": [
  			"/srv/gitlab/config:/etc/gitlab",
  			"/srv/gitlab/logs:/var/log/gitlab",
  			"/srv/gitlab/data:/var/opt/gitlab"
  		]
  	}
  },
  "jenkins": {
  	"myjenkins": {
  		"image": "kishanlalbj/jenkins",
  		"ports": [
  			"8081:8080",
  			"50000:50000"
  		]
  	}
  },
  "nagios": {
  	"mynagios": {
  		"image": "jasonrivers/nagios",
  		"ports": [
  			"4300:80"
  		]
  	}
  },
  "selenium": {
  	"hub": {
  		"image": "selenium/hub",
  		"ports": [
  			"4444:4444"
  		]
  	},
  	"firefox": {
  		"image": "selenium/node-firefox",
  		"links": [
  			"hub"
  		]
  	},
  	"chrome": {
  		"image": "selenium/node-chrome",
  		"links": [
  			"hub"
  		]
  	}
  },
  "sonarqube": {
  	"sonar": {
  		"image": "sonarqube",
  		"ports": [
  			"9000:9000",
  			"9092:9092"
  		]
  	}
  }
}
